project,fault,runtime
Chart,1,70
Chart,2,43
Chart,3,11
Chart,4,119
Chart,5,20
Chart,6,30
Chart,7,3
Chart,8,2
Chart,9,11
Chart,10,1
Chart,11,30
Chart,12,27
Chart,13,19
Chart,14,71
Chart,15,47
Chart,16,4
Chart,17,8
Chart,18,19
Chart,19,46
Chart,20,22
Chart,21,4
Chart,22,5
Chart,23,5
Chart,24,2
Chart,25,9
Chart,26,88
Chart,200154,65
Chart,200157,47
Chart,200158,44
Chart,200159,48
Chart,200160,45
Chart,200164,46
Chart,200167,45
Chart,200320,44
Chart,200323,48
Chart,200324,45
Chart,200325,47
Chart,200326,51
Chart,200330,45
Chart,300265,11
Chart,300266,10
Chart,400483,205
Chart,500080,17
Chart,500081,17
Chart,500082,17
Chart,500084,18
Chart,500085,17
Chart,500086,18
Chart,500087,19
Chart,500088,20
Chart,600004,32
Chart,600005,33
Chart,600006,30
Chart,600007,30
Chart,600008,33
Chart,600009,32
Chart,600010,32
Chart,900243,8
Chart,900244,9
Chart,900245,10
Chart,900246,10
Chart,900247,9
Chart,900248,10
Chart,900249,9
Chart,900250,9
Chart,900251,10
Chart,1100044,30
Chart,1200001,29
Chart,1300227,19
Chart,1300228,19
Chart,1300229,23
Chart,1300230,20
Chart,1400231,74
Chart,1400232,78
Chart,1400264,88
Chart,1400265,72
Chart,1400751,79
Chart,1400752,84
Chart,1400778,68
Chart,1400779,67
Chart,1500082,50
Chart,1500110,50
Chart,1600017,4
Chart,1600018,4
Chart,1600019,3
Chart,1600020,4
Chart,1600021,4
Chart,1600022,4
Chart,1600044,4
Chart,1700178,8
Chart,1700179,9
Chart,1800107,19
Chart,1800108,18
Chart,1800111,20
Chart,1800112,19
Chart,1800113,21
Chart,1800202,22
Chart,1900077,40
Chart,1900112,46
Chart,2100062,4
Chart,2100063,5
Chart,2100064,5
Chart,2100065,4
Chart,2100066,3
Chart,2100067,4
Chart,2100068,4
Chart,2100069,4
Chart,2100070,4
Chart,2100071,4
Chart,2100072,4
Chart,2100073,4
Chart,2100074,5
Chart,2100075,3
Chart,2100076,4
Chart,2100077,6
Chart,2100078,4
Chart,2100079,3
Chart,2100080,4
Chart,2100081,4
Chart,2100082,4
Chart,2100083,4
Chart,2100084,4
Chart,2100085,4
Chart,2100086,3
Chart,2200034,6
Chart,2200035,6
Chart,2200036,6
Chart,2200037,5
Chart,2200038,6
Chart,2200039,5
Chart,2200040,5
Chart,2200068,5
Chart,2200069,5
Chart,2200070,5
Chart,2200071,6
Chart,2200072,5
Chart,2200073,6
Chart,2200074,6
Chart,2200075,5
Chart,2200076,5
Chart,2200077,5
Chart,2200078,5
Chart,2200079,6
Chart,2200080,6
Chart,2200081,6
Chart,2200082,5
Chart,2200086,5
Chart,2200087,5
Chart,2200088,8
Chart,2200100,5
Chart,2200101,5
Chart,2200102,6
Chart,2300009,7
Chart,2300010,6
Chart,2300011,6
Chart,2300012,6
Chart,2300013,6
Chart,2300014,6
Chart,2300015,6
Chart,2300016,6
Chart,2300017,5
Chart,2300018,5
Chart,2300019,5
Chart,2300020,6
Chart,2400011,2
Chart,2400012,2
Chart,2400013,2
Chart,2400014,2
Chart,2400015,1
Chart,2400016,2
Chart,2400017,2
Chart,2400018,2
Chart,2400019,2
Chart,2400020,2
Chart,2400021,3
Chart,2400022,2
Chart,2400023,2
Chart,2400024,2
Chart,2400025,2
Chart,2500004,9
Chart,2500005,10
Chart,2500007,9
Chart,2500011,14
Chart,2500012,9
Chart,2500014,9
Chart,2600120,96
Closure,1,302
Closure,2,4460
Closure,3,316
Closure,4,5043
Closure,5,232
Closure,6,4616
Closure,7,4181
Closure,8,211
Closure,9,74
Closure,10,4311
Closure,11,4357
Closure,12,231
Closure,13,412
Closure,14,1716
Closure,15,225
Closure,16,253
Closure,17,3725
Closure,18,3461
Closure,19,3231
Closure,20,217
Closure,21,3172
Closure,22,3164
Closure,23,220
Closure,24,214
Closure,25,1441
Closure,26,3491
Closure,27,1881
Closure,28,326
Closure,29,193
Closure,30,205
Closure,31,3271
Closure,32,2506
Closure,33,3714
Closure,34,1201
Closure,35,1390
Closure,36,438
Closure,37,5589
Closure,38,1990
Closure,39,2476
Closure,40,306
Closure,41,3333
Closure,42,2199
Closure,43,3111
Closure,44,1614
Closure,45,103
Closure,46,1040
Closure,47,2962
Closure,48,2775
Closure,49,901
Closure,50,69
Closure,51,1663
Closure,52,1679
Closure,53,77
Closure,54,3248
Closure,55,68
Closure,56,2430
Closure,57,2770
Closure,58,100
Closure,59,3030
Closure,60,2913
Closure,61,3086
Closure,62,1528
Closure,63,1492
Closure,64,2862
Closure,65,1556
Closure,66,2870
Closure,67,93
Closure,68,1448
Closure,69,3020
Closure,70,2612
Closure,71,3024
Closure,72,213
Closure,73,1476
Closure,74,97
Closure,75,2860
Closure,76,76
Closure,77,1541
Closure,78,93
Closure,79,2628
Closure,80,2082
Closure,81,1783
Closure,82,2595
Closure,83,47
Closure,84,1881
Closure,85,58
Closure,86,2187
Closure,87,63
Closure,88,57
Closure,89,192
Closure,90,2271
Closure,91,63
Closure,92,741
Closure,93,717
Closure,94,2106
Closure,95,1083
Closure,96,2013
Closure,97,50
Closure,98,162
Closure,99,45
Closure,100,47
Closure,101,28
Closure,102,325
Closure,103,714
Closure,104,972
Closure,105,54
Closure,106,495
Closure,107,109
Closure,108,306
Closure,109,2636
Closure,110,4494
Closure,111,1756
Closure,112,2068
Closure,113,1678
Closure,114,481
Closure,115,434
Closure,116,458
Closure,117,4433
Closure,118,4589
Closure,119,693
Closure,120,4005
Closure,121,301
Closure,122,3162
Closure,123,2321
Closure,124,212
Closure,125,4155
Closure,126,203
Closure,127,235
Closure,128,2274
Closure,129,8995
Closure,130,653
Closure,131,2012
Closure,132,284
Closure,133,2572
Closure,100127,300
Closure,100128,326
Closure,100129,313
Closure,200620,4612
Closure,200621,4409
Closure,300031,295
Closure,300032,314
Closure,300112,321
Closure,300113,319
Closure,300114,283
Closure,300115,326
Closure,400024,4168
Closure,400025,4266
Closure,400032,5078
Closure,500041,256
Closure,500042,265
Closure,500043,265
Closure,600101,4194
Closure,600105,4345
Closure,600106,5098
Closure,700063,4611
Closure,700064,4390
Closure,700065,4343
Closure,700066,3868
Closure,800061,197
Closure,800062,341
Closure,800063,360
Closure,800064,199
Closure,800065,205
Closure,800066,205
Closure,800067,240
Closure,800068,244
Closure,800069,217
Closure,800070,241
Closure,800071,215
Closure,800072,217
Closure,800073,231
Closure,900013,85
Closure,900057,89
Closure,1000477,4838
Closure,1100637,7989
Closure,1100638,8289
Closure,1200020,208
Closure,1200021,269
Closure,1200022,268
Closure,1300036,389
Closure,1400295,1874
Closure,1500007,224
Closure,1500008,224
Closure,1500009,253
Closure,1600036,273
Closure,1600038,304
Closure,1600039,291
Closure,1600040,291
Closure,1600207,249
Closure,1700518,3455
Closure,1700519,3720
Closure,1700520,3393
Closure,1700521,3740
Closure,1700522,3709
Closure,1700523,3404
Closure,1700524,3773
Closure,1700525,3119
Closure,1700526,3620
Closure,1800259,3878
Closure,1800260,3314
Closure,1900023,3216
Closure,2000081,221
Closure,2000082,229
Closure,2000083,228
Closure,2000084,488
Closure,2000085,231
Closure,2000086,218
Closure,2100013,3082
Closure,2100014,3009
Closure,2100015,3071
Closure,2100024,3175
Closure,2100025,3119
Closure,2100026,3329
Closure,2100027,3134
Closure,2100028,3150
Closure,2100029,7435
Closure,2100030,3516
Closure,2100031,3085
Closure,2200013,3056
Closure,2200014,3472
Closure,2200015,3118
Closure,2200017,3307
Closure,2200018,3439
Closure,2200019,3465
Closure,2200020,2960
Closure,2300757,220
Closure,2300758,260
Closure,2300759,262
Closure,2300760,275
Closure,2300761,268
Closure,2300762,260
Closure,2300763,271
Closure,2400078,260
Closure,2400079,213
Closure,2400080,222
Closure,2400081,260
Closure,2400082,226
Closure,2400083,229
Closure,2400089,236
Closure,2400090,221
Closure,2400091,232
Closure,2400092,234
Closure,2500549,1625
Closure,2500551,1552
Closure,2500569,1479
Closure,2500571,1618
Closure,2600021,3205
Closure,2600068,3808
Closure,2600069,3405
Closure,2600070,5881
Closure,2600078,5716
Closure,2700016,1773
Closure,2700033,2082
Closure,2800025,413
Closure,2900028,233
Closure,2900041,233
Closure,2900042,257
Closure,2900043,235
Closure,2900044,199
Closure,2900045,240
Closure,2900046,228
Closure,2900047,236
Closure,2900060,199
Closure,3000004,248
Closure,3000098,209
Closure,3000099,243
Closure,3000101,204
Closure,3000102,238
Closure,3000103,201
Closure,3000114,203
Closure,3000115,247
Closure,3000116,238
Closure,3000143,205
Closure,3100236,3547
Closure,3100237,3176
Closure,3200568,2856
Closure,3200569,2520
Closure,3200570,2593
Closure,3200571,2962
Closure,3200572,2459
Closure,3200573,2576
Closure,3200574,2510
Closure,3200581,2470
Closure,3200582,2897
Closure,3200583,2430
Closure,3200589,2840
Closure,3200590,2361
Closure,3200591,2284
Closure,3200592,2297
Closure,3200593,2881
Closure,3200594,2304
Closure,3200595,2887
Closure,3200596,4818
Closure,3200597,2743
Closure,3200598,4953
Closure,3200599,2837
Closure,3200600,4618
Closure,3200601,2371
Closure,3200602,2842
Closure,3200603,4527
Closure,3200604,2708
Closure,3200605,4558
Closure,3200606,2873
Closure,3200607,4440
Closure,3200635,5130
Closure,3300231,3650
Closure,3300232,3250
Closure,3300233,3267
Closure,3400052,1272
Closure,3400053,1304
Closure,3400054,2309
Closure,3400055,2389
Closure,3400056,2449
Closure,3400057,1447
Closure,3400058,1280
Closure,3400601,1287
Closure,3400602,1295
Closure,3401068,1317
Closure,3401069,1520
Closure,3401070,1318
Closure,3401071,1273
Closure,3401072,1299
Closure,3401073,1297
Closure,3401074,1308
Closure,3500574,1743
Closure,3500575,1426
Closure,3600284,433
Closure,3600285,445
Closure,3700114,5509
Closure,3700115,4861
Closure,3700445,5469
Closure,3700446,5948
Closure,3700447,3351
Closure,3800113,1894
Closure,3800114,1729
Closure,3800115,1851
Closure,3800116,1853
Closure,3800117,1898
Closure,3800118,2162
Closure,3800119,1787
Closure,3800120,1862
Closure,3800121,2241
Closure,3900157,2183
Closure,3900159,2130
Closure,3900160,2277
Closure,3900161,2056
Closure,3900162,1941
Closure,3900163,2149
Closure,3900164,2109
Closure,4000121,313
Closure,4100185,2958
Closure,4100186,2925
Closure,4100188,3141
Closure,4100190,2793
Closure,4100191,3140
Closure,4200207,2013
Closure,4200208,2027
Closure,4200209,1924
Closure,4300131,2788
Closure,4300132,2859
Closure,4300133,3014
Closure,4300134,2912
Closure,4300135,2845
Closure,4300136,2888
Closure,4300137,3227
Closure,4300138,2926
Closure,4300139,2881
Closure,4300140,2968
Closure,4300141,3063
Closure,4300155,2943
Closure,4300156,2949
Closure,4300158,2967
Closure,4300159,3004
Closure,4300161,2937
Closure,4300162,3041
Closure,4300163,2808
Closure,4300164,2973
Closure,4400061,1647
Closure,4400062,1704
Closure,4400063,1605
Closure,4400064,1721
Closure,4400065,1728
Closure,4400066,1876
Closure,4400067,1574
Closure,4400068,1616
Closure,4400069,1681
Closure,4400070,1857
Closure,4400071,1691
Closure,4500292,106
Closure,4500300,108
Closure,4500301,104
Closure,4500302,116
Closure,4500303,115
Closure,4500304,106
Closure,4500305,108
Closure,4500306,101
Closure,4500307,102
Closure,4500308,103
Closure,4500309,100
Closure,4500310,429
Closure,4500375,102
Closure,4700232,2969
Closure,4700233,2799
Closure,4700234,2754
Closure,4700235,2697
Closure,4700236,2776
Closure,4700237,2785
Closure,4700238,2910
Closure,4700239,3163
Closure,4700240,2821
Closure,4700241,2904
Closure,4700242,2898
Closure,4700243,2916
Closure,4700316,2935
Closure,4700317,3262
Closure,4700318,3119
Closure,4700319,3048
Closure,4700320,2892
Closure,4700321,2847
Closure,4700322,3219
Closure,4700323,3204
Closure,4700324,3133
Closure,4700325,2770
Closure,4700326,2860
Closure,4700327,2921
Closure,4700328,3180
Closure,4800617,3038
Closure,4800618,2734
Closure,4800619,2696
Closure,4800620,2900
Closure,4800621,2879
Closure,4800622,2631
Closure,4800623,2843
Closure,4800624,5136
Closure,4800625,2741
Closure,4800626,3294
Closure,4800627,2860
Closure,4800628,2860
Closure,4800629,2811
Closure,4800630,3137
Closure,4900013,882
Closure,4900014,829
Closure,4900033,974
Closure,4900034,828
Closure,4900035,831
Closure,4900036,1008
Closure,4900037,1152
Closure,4900038,880
Closure,4900039,784
Closure,4900040,1010
Closure,4900054,892
Closure,4900056,1007
Closure,5000206,68
Closure,5000207,81
Closure,5000208,82
Closure,5000209,69
Closure,5000217,69
Closure,5000218,70
Closure,5000219,121
Closure,5000220,82
Closure,5000221,68
Closure,5000222,60
Closure,5000223,64
Closure,5000224,80
Closure,5000225,70
Closure,5000226,117
Closure,5000227,69
Closure,5000228,81
Closure,5000229,70
Closure,5100109,1421
Closure,5100110,1884
Closure,5100111,1614
Closure,5100112,1890
Closure,5100113,1671
Closure,5200559,1635
Closure,5200560,1696
Closure,5200561,1785
Closure,5200562,1622
Closure,5200563,1746
Closure,5200564,1886
Closure,5200565,1701
Closure,5200566,2929
Closure,5200567,1628
Closure,5200568,1556
Closure,5200569,1669
Closure,5200570,1698
Closure,5300122,75
Closure,5300123,87
Closure,5300124,85
Closure,5400077,3177
Closure,5400078,3179
Closure,5400079,5709
Closure,5400080,3184
Closure,5400081,3060
Closure,5400082,3112
Closure,5400083,3992
Closure,5400084,3380
Closure,5400086,3293
Closure,5400092,6329
Closure,5400997,3809
Closure,5400998,3830
Closure,5400999,3103
Closure,5401000,3264
Closure,5401001,3036
Closure,5401002,6654
Closure,5401003,3422
Closure,5401004,3074
Closure,5500021,122
Closure,5500022,121
Closure,5500023,116
Closure,5600037,3047
Closure,5600038,2665
Closure,5600039,2091
Closure,5700073,2828
Closure,5700074,2753
Closure,5700075,4340
Closure,5700076,2463
Closure,5700077,2724
Closure,5700078,2372
Closure,5700079,2491
Closure,5800042,96
Closure,5800044,119
Closure,5900024,2989
Closure,5900025,3266
Closure,5900026,2933
Closure,6000021,2875
Closure,6000034,2990
Closure,6000035,2958
Closure,6000037,3055
Closure,6100373,2570
Closure,6100374,2460
Closure,6100375,2620
Closure,6100376,2614
Closure,6100377,2528
Closure,6100378,3069
Closure,6100379,2621
Closure,6200021,1529
Closure,6200022,1519
Closure,6200023,1399
Closure,6200024,1456
Closure,6200025,1455
Closure,6400256,2903
Closure,6400257,2807
Closure,6400258,3079
Closure,6400259,2749
Closure,6400284,2930
Closure,6400285,2802
Closure,6400286,2889
Closure,6400287,2739
Closure,6400288,2925
Closure,6500715,1542
Closure,6500716,1611
Closure,6600101,2613
Closure,6600102,2682
Closure,6700147,78
Closure,6700148,81
Closure,6700149,78
Closure,6700150,78
Closure,6700151,76
Closure,6700152,83
Closure,6700153,78
Closure,6700154,80
Closure,6700155,74
Closure,6700156,76
Closure,6700157,72
Closure,6700158,78
Closure,6700159,80
Closure,6700160,78
Closure,6800409,1373
Closure,6800721,1409
Closure,6800753,1481
Closure,6900581,2728
Closure,6900582,2797
Closure,6900583,2581
Closure,6900584,3088
Closure,6900585,2641
Closure,6900586,2617
Closure,6900587,2558
Closure,6900588,2688
Closure,6900589,3001
Closure,6900590,2687
Closure,6900591,2515
Closure,6900592,3060
Closure,6900593,2725
Closure,6900594,2587
Closure,6900595,2685
Closure,6900596,2726
Closure,6900597,2834
Closure,7000797,2779
Closure,7000798,2284
Closure,7100162,3040
Closure,7100163,2570
Closure,7100164,2715
Closure,7100165,2491
Closure,7100166,3074
Closure,7100167,3052
Closure,7100168,2549
Closure,7100169,2700
Closure,7200034,204
Closure,7200035,204
Closure,7200177,189
Closure,7200178,231
Closure,7200179,220
Closure,7300878,1446
Closure,7300879,1412
Closure,7300880,1426
Closure,7300882,1337
Closure,7300883,1406
Closure,7300884,1401
Closure,7300885,1734
Closure,7300886,1809
Closure,7300887,1474
Closure,7300889,1437
Closure,7300890,1603
Closure,7300891,1551
Closure,7400501,105
Closure,7400502,98
Closure,7400573,100
Closure,7400574,98
Closure,7400575,98
Closure,7400576,102
Closure,7400577,102
Closure,7400578,114
Closure,7400579,95
Closure,7500107,2646
Closure,7500108,2665
Closure,7600123,74
Closure,7600124,74
Closure,7600125,69
Closure,7600126,64
Closure,7600127,67
Closure,7600128,65
Closure,7600129,64
Closure,7600130,68
Closure,7600131,65
Closure,7600132,66
Closure,7600133,69
Closure,7600134,65
Closure,7600137,78
Closure,7600144,64
Closure,7600157,75
Closure,7600158,74
Closure,7600160,69
Closure,7700699,1383
Closure,7700700,1486
Closure,7900014,2269
Closure,7900344,2547
Closure,8100225,1690
Closure,8100226,1664
Closure,8100227,1746
Closure,8100228,1599
Closure,8100229,1738
Closure,8200013,5780
Closure,8200014,2630
Closure,8200015,2547
Closure,8200016,2962
Closure,8200017,2565
Closure,8200018,2858
Closure,8200019,2922
Closure,8200021,2819
Closure,8200022,2790
Closure,8200023,2517
Closure,8300022,44
Closure,8300023,43
Closure,8400147,1527
Closure,8400148,1509
Closure,8400149,1610
Closure,8400150,1663
Closure,8400381,1665
Closure,8400382,1811
Closure,8400383,1652
Closure,8400384,1753
Closure,8400385,1778
Closure,8400386,2773
Closure,8400387,1736
Closure,8400388,1621
Closure,8400395,1513
Closure,8400396,1530
Closure,8500047,48
Closure,8500053,84
Closure,8500054,86
Closure,8500055,48
Closure,8500056,87
Closure,8500057,89
Closure,8500058,51
Closure,8500059,48
Closure,8500060,50
Closure,8600861,2276
Closure,8700261,61
Closure,8700262,61
Closure,8700263,62
Closure,8700264,63
Closure,8700265,62
Closure,8700266,71
Closure,8700267,63
Closure,8700268,70
Closure,8700269,61
Closure,8700270,68
Closure,8700271,61
Closure,8700272,77
Closure,8700273,74
Closure,8700274,78
Closure,8700275,60
Closure,8700276,59
Closure,8700277,63
Closure,8800139,61
Closure,8800140,63
Closure,8800141,72
Closure,8800142,60
Closure,8800143,106
Closure,8900395,231
Closure,8900396,193
Closure,8900397,196
Closure,8900398,367
Closure,8900678,200
Closure,8900679,193
Closure,8900680,211
Closure,8900681,195
Closure,8900682,240
Closure,9000351,2294
Closure,9000399,2123
Closure,9000400,2135
Closure,9100045,55
Closure,9100046,52
Closure,9100047,55
Closure,9100048,62
Closure,9100049,69
Closure,9100050,58
Closure,9100051,68
Closure,9100052,62
Closure,9100053,55
Closure,9100054,54
Closure,9100055,55
Closure,9100056,53
Closure,9200386,1146
Closure,9300386,764
Closure,9400077,1897
Closure,9400078,1934
Closure,9500518,1048
Closure,9500520,1052
Closure,9500523,1141
Closure,9500524,983
Closure,9500527,992
Closure,9500528,995
Closure,9500529,1134
Closure,9500530,1072
Closure,9600526,1873
Closure,9600527,1967
Closure,9600528,2331
Closure,9600529,2259
Closure,9600531,2453
Closure,9600532,1916
Closure,9600533,2400
Closure,9600534,1953
Closure,9600535,2092
Closure,9600536,2033
Closure,9600537,1923
Closure,9600538,1904
Closure,9600539,1960
Closure,9700331,51
Closure,9700332,55
Closure,9700333,50
Closure,9700334,58
Closure,9700335,50
Closure,9800110,179
Closure,9800111,281
Closure,9800112,152
Closure,9800113,145
Closure,9800114,156
Closure,9800115,148
Closure,9800116,177
Closure,9800117,158
Closure,9800226,159
Closure,9800227,186
Closure,9800228,146
Closure,9800229,146
Closure,9800230,151
Closure,9800231,151
Closure,9800232,148
Closure,9800233,271
Closure,9800234,159
Closure,9800235,188
Closure,9800236,160
Closure,9800237,156
Closure,9800238,158
Closure,9900007,40
Closure,9900008,44
Closure,9900009,46
Closure,9900010,45
Closure,9900011,52
Closure,9900012,75
Closure,9900013,42
Closure,9900014,45
Closure,9900015,42
Closure,9900016,46
Closure,9900049,40
Closure,9900050,43
Closure,9900055,45
Closure,9900056,43
Closure,9900057,54
Closure,9900058,44
Closure,9900059,44
Closure,9900060,44
Closure,9900061,44
Closure,10000014,41
Closure,10000015,50
Closure,10000016,43
Closure,10000017,45
Closure,10000018,42
Closure,10000019,41
Closure,10000020,53
Closure,10000021,52
Closure,10000022,41
Closure,10000023,45
Closure,10000024,44
Closure,10000025,43
Closure,10000026,44
Closure,10000027,70
Closure,10000028,44
Closure,10000029,42
Closure,10000030,43
Closure,10000031,39
Closure,10000032,42
Closure,10000068,43
Closure,10000069,43
Closure,10100057,37
Closure,10200007,285
Closure,10200012,318
Closure,10300581,652
Closure,10300582,586
Closure,10300583,625
Closure,10300584,598
Closure,10300585,682
Closure,10300586,629
Closure,10300587,600
Closure,10300588,702
Closure,10400053,1283
Closure,10400054,1088
Closure,10500983,61
Closure,10500984,50
Closure,10500987,53
Closure,10500990,66
Closure,10500993,57
Closure,10600374,457
Closure,10600375,529
Closure,10600456,430
Closure,10600457,445
Closure,10700117,105
Closure,10800062,325
Closure,10800157,323
Closure,10800252,330
Closure,10800253,603
Closure,10800254,314
Closure,10800255,319
Closure,10800256,387
Closure,10900902,2734
Closure,10900903,2924
Closure,10900904,4736
Closure,11001066,4843
Closure,11001080,4740
Closure,11001081,8664
Closure,11001082,4286
Closure,11001083,4620
Closure,11001093,9869
Closure,11001094,4685
Closure,11001095,5069
Closure,11001096,4519
Closure,11001097,4596
Closure,11001098,4294
Closure,11001099,4720
Closure,11001100,4422
Closure,11001101,4450
Closure,11001108,4190
Closure,11001109,4495
Closure,11001110,7985
Closure,11100001,1643
Closure,11200599,2245
Closure,11300129,1532
Closure,11300130,1627
Closure,11300131,1534
Closure,11300132,1610
Closure,11400097,838
Closure,11400098,432
Closure,11400099,396
Closure,11400100,406
Closure,11600211,435
Closure,11600212,514
Closure,11600213,515
Closure,11600214,483
Closure,11600215,449
Closure,11600234,446
Closure,11600235,458
Closure,11600236,442
Closure,11600237,415
Closure,11600238,448
Closure,11700211,4276
Closure,11700212,4428
Closure,11700214,4503
Closure,11700215,4200
Closure,11700216,4195
Closure,11700217,4057
Closure,11700218,3848
Closure,11700219,4205
Closure,11700220,4273
Closure,11700221,5485
Closure,11700222,5064
Closure,11700224,4333
Closure,11700225,3991
Closure,11700226,4173
Closure,11700227,5506
Closure,11700254,4318
Closure,11800129,4350
Closure,11800130,4668
Closure,11800131,4454
Closure,12000125,4173
Closure,12000126,4517
Closure,12100136,320
Closure,12100137,334
Closure,12100138,317
Closure,12100139,273
Closure,12100140,335
Closure,12100141,301
Closure,12100142,308
Closure,12100143,332
Closure,12100144,345
Closure,12100145,298
Closure,12100146,279
Closure,12100147,339
Closure,12100148,311
Closure,12100149,316
Closure,12100150,341
Closure,12100151,311
Closure,12100152,300
Closure,12200049,3028
Closure,12200050,2844
Closure,12300193,2581
Closure,12500644,4289
Closure,12500645,4155
Closure,12500646,4868
Closure,12500647,4001
Closure,12500648,4394
Closure,12700049,234
Closure,12700050,203
Closure,12700051,206
Closure,12700052,239
Closure,12700053,205
Closure,12700055,207
Closure,12700056,205
Closure,12700057,383
Closure,12700058,205
Closure,12700059,205
Closure,12700060,213
Closure,12700061,211
Closure,12700062,206
Closure,12700063,211
Closure,12800634,2357
Closure,12800635,2369
Closure,12800636,2481
Closure,12800637,2300
Closure,12800645,2242
Closure,12800646,2525
Closure,12800647,2924
Closure,12800648,2182
Closure,12800649,2131
Closure,12800650,2291
Closure,12800651,2245
Closure,12800652,2215
Closure,12800653,2508
Closure,12800654,2178
Closure,12800655,2358
Closure,12800656,2333
Closure,13000018,438
Closure,13000019,373
Closure,13000020,435
Closure,13000021,359
Closure,13000022,366
Closure,13000023,396
Closure,13000024,366
Closure,13000025,364
Closure,13000026,430
Closure,13000027,366
Closure,13000028,427
Closure,13000029,373
Closure,13000030,433
Closure,13000031,446
Closure,13000032,363
Closure,13000033,376
Closure,13000034,446
Closure,13000035,368
Closure,13000036,376
Closure,13100059,2438
Closure,13100060,1970
Closure,13100062,2011
Closure,13100063,2025
Closure,13100064,1998
Closure,13100065,2096
Closure,13100066,2183
Closure,13100068,2029
Closure,13100069,1910
Closure,13100070,2020
Closure,13100071,2034
Closure,13100072,2027
Closure,13100078,3869
Closure,13100079,2050
Closure,13200410,289
Closure,13200411,271
Closure,13200412,284
Closure,13200413,290
Closure,13200414,281
Closure,13200415,274
Closure,13200416,290
Closure,13200417,278
Closure,13200418,275
Closure,13200419,331
Closure,13301153,2597
Lang,1,11
Lang,2,2
Lang,3,12
Lang,4,9
Lang,5,2
Lang,6,17
Lang,7,9
Lang,8,20
Lang,9,25
Lang,10,20
Lang,11,1
Lang,12,2
Lang,13,11
Lang,14,40
Lang,15,4
Lang,16,10
Lang,17,6
Lang,18,8
Lang,19,4
Lang,20,43
Lang,21,7
Lang,22,3
Lang,23,6
Lang,24,8
Lang,25,4
Lang,26,10
Lang,27,7
Lang,28,4
Lang,29,25
Lang,30,42
Lang,31,40
Lang,32,5
Lang,33,11
Lang,34,14
Lang,35,34
Lang,36,7
Lang,37,24
Lang,38,9
Lang,39,33
Lang,40,25
Lang,41,8
Lang,42,8
Lang,43,30
Lang,44,2
Lang,45,11
Lang,46,6
Lang,47,20
Lang,48,9
Lang,49,3
Lang,50,6
Lang,51,7
Lang,52,6
Lang,53,3
Lang,54,2
Lang,55,5
Lang,56,5
Lang,57,2
Lang,58,10
Lang,59,10
Lang,60,12
Lang,61,11
Lang,62,8
Lang,63,7
Lang,64,9
Lang,65,3
Lang,100061,10
Lang,100062,10
Lang,100063,11
Lang,100064,9
Lang,100065,12
Lang,100066,10
Lang,100067,10
Lang,100072,11
Lang,100073,10
Lang,100074,10
Lang,100075,12
Lang,100076,9
Lang,100077,9
Lang,100078,10
Lang,100079,10
Lang,100080,11
Lang,100081,10
Lang,100082,10
Lang,100083,10
Lang,100084,12
Lang,100085,10
Lang,100086,11
Lang,100087,11
Lang,100088,11
Lang,100089,11
Lang,100091,10
Lang,100092,11
Lang,100093,9
Lang,100094,12
Lang,100095,10
Lang,100096,10
Lang,100097,12
Lang,100098,9
Lang,100099,11
Lang,100100,11
Lang,100101,11
Lang,100102,10
Lang,100103,10
Lang,100104,11
Lang,100105,12
Lang,100106,11
Lang,100107,10
Lang,100108,10
Lang,200004,1
Lang,200005,2
Lang,300199,10
Lang,300200,13
Lang,300201,11
Lang,300202,10
Lang,300203,10
Lang,300216,11
Lang,300217,13
Lang,300218,11
Lang,300219,12
Lang,300220,10
Lang,400001,8
Lang,400002,10
Lang,400003,8
Lang,400004,9
Lang,400005,8
Lang,400006,10
Lang,400034,9
Lang,500012,2
Lang,500013,2
Lang,500014,2
Lang,500015,2
Lang,500016,2
Lang,500017,2
Lang,500018,2
Lang,500019,2
Lang,500020,1
Lang,500021,2
Lang,500022,1
Lang,500023,2
Lang,500024,2
Lang,500025,2
Lang,500026,2
Lang,500027,2
Lang,500028,2
Lang,500029,2
Lang,500030,2
Lang,500031,2
Lang,500032,2
Lang,500033,1
Lang,500034,2
Lang,500035,2
Lang,500036,2
Lang,500037,2
Lang,500038,2
Lang,500039,2
Lang,500040,2
Lang,500041,1
Lang,500042,2
Lang,500043,2
Lang,500044,2
Lang,500045,2
Lang,500046,1
Lang,500047,2
Lang,500048,2
Lang,600026,782
Lang,700052,11
Lang,700053,10
Lang,700054,10
Lang,700055,11
Lang,700056,10
Lang,700057,10
Lang,700058,10
Lang,700059,10
Lang,700060,9
Lang,700210,10
Lang,800447,20
Lang,900026,25
Lang,1000060,42
Lang,1100042,2
Lang,1100043,1
Lang,1200023,1
Lang,1200024,2
Lang,1200025,1
Lang,1200026,1
Lang,1200027,1
Lang,1200028,1
Lang,1200037,2
Lang,1200038,1
Lang,1300021,9
Lang,1300023,9
Lang,1300024,8
Lang,1300025,9
Lang,1300026,8
Lang,1300027,10
Lang,1300028,11
Lang,1300029,9
Lang,1300030,10
Lang,1300031,9
Lang,1300033,9
Lang,1300034,9
Lang,1400146,42
Lang,1400147,44
Lang,1400149,43
Lang,1400150,44
Lang,1400151,41
Lang,1400152,43
Lang,1500030,4
Lang,1500031,3
Lang,1500111,3
Lang,1500112,4
Lang,1600053,12
Lang,1600054,10
Lang,1600055,10
Lang,1600056,11
Lang,1600057,9
Lang,1600058,10
Lang,1600059,10
Lang,1600060,9
Lang,1600061,9
Lang,1700011,6
Lang,1700021,1168
Lang,1700025,660
Lang,1800053,9
Lang,1800054,8
Lang,1800055,7
Lang,1800056,9
Lang,1800057,8
Lang,1800058,10
Lang,1800059,8
Lang,1800060,9
Lang,1900002,3
Lang,1900003,3
Lang,1900004,4
Lang,1900005,3
Lang,1900006,3
Lang,1900007,4
Lang,1900008,2
Lang,1900009,4
Lang,1900010,3
Lang,1900011,3
Lang,1900012,4
Lang,1900013,4
Lang,1900014,3
Lang,1900015,3
Lang,1900016,3
Lang,1900017,3
Lang,1900018,3
Lang,1900019,4
Lang,1900020,3
Lang,1900021,3
Lang,1900022,3
Lang,1900023,3
Lang,1900024,4
Lang,1900043,3
Lang,1900044,4
Lang,1900047,4
Lang,1900048,3
Lang,1900049,3
Lang,1900050,4
Lang,1900051,3
Lang,1900052,3
Lang,1900053,3
Lang,1900054,3
Lang,1900055,3
Lang,1900056,4
Lang,1900057,3
Lang,1900058,3
Lang,1900059,3
Lang,1900060,3
Lang,1900061,3
Lang,1900062,3
Lang,1900063,3
Lang,1900064,3
Lang,1900065,3
Lang,1900066,3
Lang,1900067,3
Lang,1900068,3
Lang,1900069,3
Lang,1900070,3
Lang,1900071,3
Lang,1900072,3
Lang,1900073,3
Lang,1900074,3
Lang,1900076,3
Lang,1900099,4
Lang,1900100,4
Lang,1900101,3
Lang,1900102,3
Lang,1900103,3
Lang,1900104,3
Lang,1900105,3
Lang,1900106,3
Lang,1900107,3
Lang,1900108,3
Lang,1900109,3
Lang,1900110,3
Lang,1900111,3
Lang,1900112,29
Lang,1900113,3
Lang,1900114,3
Lang,1900115,3
Lang,1900116,5
Lang,1900117,4
Lang,1900118,4
Lang,1900119,3
Lang,1900120,3
Lang,1900121,3
Lang,1900122,4
Lang,1900123,3
Lang,1900124,4
Lang,1900125,3
Lang,1900126,3
Lang,1900127,3
Lang,1900128,3
Lang,2001164,34
Lang,2001165,35
Lang,2001186,35
Lang,2001187,44
Lang,2100029,7
Lang,2100030,7
Lang,2100031,6
Lang,2100032,7
Lang,2100033,7
Lang,2100034,7
Lang,2100035,6
Lang,2100036,7
Lang,2100037,8
Lang,2100038,6
Lang,2100039,6
Lang,2100040,9
Lang,2100041,6
Lang,2100042,6
Lang,2100043,8
Lang,2100044,7
Lang,2100045,7
Lang,2100046,6
Lang,2100047,6
Lang,2100048,7
Lang,2100049,6
Lang,2100050,7
Lang,2200420,2
Lang,2200421,3
Lang,2200422,3
Lang,2200423,3
Lang,2200424,3
Lang,2200425,3
Lang,2200426,3
Lang,2200427,3
Lang,2200428,3
Lang,2200429,2
Lang,2200430,3
Lang,2300046,6
Lang,2300047,6
Lang,2300048,5
Lang,2300049,7
Lang,2300050,6
Lang,2300051,7
Lang,2300052,5
Lang,2300053,5
Lang,2300054,6
Lang,2300055,5
Lang,2300056,5
Lang,2300057,6
Lang,2300058,5
Lang,2300059,6
Lang,2400611,7
Lang,2400612,7
Lang,2400613,8
Lang,2400614,7
Lang,2400615,8
Lang,2600233,9
Lang,2700076,8
Lang,2700077,8
Lang,2700078,7
Lang,2700079,9
Lang,2700080,8
Lang,2700086,7
Lang,2700087,8
Lang,2800046,3
Lang,2800047,2
Lang,2800048,2
Lang,2800049,3
Lang,2800050,4
Lang,2800051,3
Lang,2800052,3
Lang,2800053,3
Lang,2800054,3
Lang,2800055,3
Lang,2800056,3
Lang,2800057,3
Lang,3000345,40
Lang,3000347,38
Lang,3000358,40
Lang,3000359,39
Lang,3000360,40
Lang,3000361,40
Lang,3000362,40
Lang,3000363,42
Lang,3000364,40
Lang,3000365,40
Lang,3000366,41
Lang,3000367,40
Lang,3000368,40
Lang,3000369,40
Lang,3000370,51
Lang,3000371,39
Lang,3000372,38
Lang,3000373,39
Lang,3000374,39
Lang,3000375,40
Lang,3000376,40
Lang,3000377,50
Lang,3000413,40
Lang,3000414,40
Lang,3000415,51
Lang,3000416,51
Lang,3000417,39
Lang,3000418,41
Lang,3000419,39
Lang,3000420,40
Lang,3000421,39
Lang,3000422,40
Lang,3000423,40
Lang,3000424,40
Lang,3000425,40
Lang,3000426,41
Lang,3000427,42
Lang,3000440,40
Lang,3000442,41
Lang,3000453,42
Lang,3000454,41
Lang,3000455,40
Lang,3000456,39
Lang,3000457,40
Lang,3000458,39
Lang,3000459,40
Lang,3000460,39
Lang,3000461,39
Lang,3000462,49
Lang,3000463,39
Lang,3000464,39
Lang,3000465,40
Lang,3000466,40
Lang,3000467,40
Lang,3000468,40
Lang,3000469,41
Lang,3000470,49
Lang,3000471,51
Lang,3000472,50
Lang,3000473,40
Lang,3000474,39
Lang,3000488,40
Lang,3000489,39
Lang,3000490,39
Lang,3000491,40
Lang,3000492,42
Lang,3000493,40
Lang,3000494,40
Lang,3000495,41
Lang,3000496,41
Lang,3000497,41
Lang,3000498,39
Lang,3000499,41
Lang,3000500,39
Lang,3000501,40
Lang,3000502,39
Lang,3000503,41
Lang,3000504,39
Lang,3000505,40
Lang,3000506,38
Lang,3000507,41
Lang,3000509,40
Lang,3000510,40
Lang,3000511,50
Lang,3000546,40
Lang,3000547,40
Lang,3000548,48
Lang,3000549,39
Lang,3000550,50
Lang,3000552,41
Lang,3000553,40
Lang,3000554,39
Lang,3000555,40
Lang,3000556,40
Lang,3000557,41
Lang,3000568,39
Lang,3000569,39
Lang,3000570,40
Lang,3000571,41
Lang,3000572,40
Lang,3000573,41
Lang,3000574,39
Lang,3000575,40
Lang,3000576,39
Lang,3000577,40
Lang,3000578,39
Lang,3000579,40
Lang,3000580,39
Lang,3000581,40
Lang,3000582,40
Lang,3000583,40
Lang,3100368,39
Lang,3100369,38
Lang,3100379,39
Lang,3100380,48
Lang,3100381,39
Lang,3100382,37
Lang,3100383,48
Lang,3100384,40
Lang,3100385,38
Lang,3100386,38
Lang,3100387,39
Lang,3100388,40
Lang,3100389,40
Lang,3100390,38
Lang,3100391,37
Lang,3100392,50
Lang,3100393,39
Lang,3100394,40
Lang,3100395,39
Lang,3100396,39
Lang,3200001,5
Lang,3200003,5
Lang,3200004,4
Lang,3200005,5
Lang,3200006,5
Lang,3200007,5
Lang,3200056,4
Lang,3200057,5
Lang,3200059,6
Lang,3200060,5
Lang,3200061,5
Lang,3200062,5
Lang,3300331,13
Lang,3300332,12
Lang,3400007,15
Lang,3400009,14
Lang,3400010,14
Lang,3400011,17
Lang,3400012,13
Lang,3400013,13
Lang,3600084,7
Lang,3600085,6
Lang,3600086,7
Lang,3600087,7
Lang,3600088,8
Lang,3600573,7
Lang,3600574,8
Lang,3600575,8
Lang,3600576,7
Lang,3600577,6
Lang,3701757,25
Lang,3701758,26
Lang,3800238,8
Lang,3901264,30
Lang,3901265,28
Lang,3901266,29
Lang,4000260,27
Lang,4000261,28
Lang,4000262,28
Lang,4000263,27
Lang,4000264,32
Lang,4000265,28
Lang,4000266,28
Lang,4000267,34
Lang,4000268,28
Lang,4000269,27
Lang,4000270,27
Lang,4000271,29
Lang,4100037,10
Lang,4100038,8
Lang,4100039,9
Lang,4100040,8
Lang,4100041,9
Lang,4100042,8
Lang,4100043,12
Lang,4100044,8
Lang,4100045,15
Lang,4100046,8
Lang,4100047,9
Lang,4100048,8
Lang,4100049,9
Lang,4100050,9
Lang,4100051,8
Lang,4100052,8
Lang,4100053,8
Lang,4100054,8
Lang,4100055,8
Lang,4100056,8
Lang,4100057,8
Lang,4100058,8
Lang,4100059,9
Lang,4100060,7
Lang,4100061,8
Lang,4100062,10
Lang,4100063,8
Lang,4100064,8
Lang,4100065,9
Lang,4100066,9
Lang,4100067,8
Lang,4100068,8
Lang,4100069,8
Lang,4100079,9
Lang,4100086,7
Lang,4100087,9
Lang,4100088,8
Lang,4100089,10
Lang,4100090,8
Lang,4100091,8
Lang,4100092,8
Lang,4100093,10
Lang,4100094,9
Lang,4100096,9
Lang,4100097,10
Lang,4100098,8
Lang,4100099,10
Lang,4100100,8
Lang,4100102,8
Lang,4100104,8
Lang,4100105,9
Lang,4100106,9
Lang,4100107,8
Lang,4100108,8
Lang,4100109,8
Lang,4100110,9
Lang,4100111,8
Lang,4100112,8
Lang,4100113,9
Lang,4100114,8
Lang,4100115,8
Lang,4100116,9
Lang,4100117,9
Lang,4100118,7
Lang,4200192,8
Lang,4200195,7
Lang,4200196,8
Lang,4200197,8
Lang,4200198,7
Lang,4200199,9
Lang,4200200,8
Lang,4200201,10
Lang,4200202,8
Lang,4200203,8
Lang,4200204,8
Lang,4200205,10
Lang,4200206,8
Lang,4200207,8
Lang,4200208,8
Lang,4200209,8
Lang,4200210,8
Lang,4200211,8
Lang,4200212,8
Lang,4300130,29
Lang,4400009,2
Lang,4400010,3
Lang,4400011,2
Lang,4400012,2
Lang,4400013,2
Lang,4400014,3
Lang,4400015,2
Lang,4400016,2
Lang,4400017,2
Lang,4400018,2
Lang,4500237,12
Lang,4500238,9
Lang,4500239,9
Lang,4600003,6
Lang,4600004,5
Lang,4600005,5
Lang,4600006,6
Lang,4600007,7
Lang,4600008,5
Lang,4600009,6
Lang,4600065,6
Lang,4600066,6
Lang,4700451,11
Lang,4700452,14
Lang,4700485,11
Lang,4700486,13
Lang,4800072,10
Lang,4800073,10
Lang,4800074,9
Lang,4900339,3
Lang,4900340,3
Lang,4900341,2
Lang,4900342,3
Lang,4900343,2
Lang,4900344,3
Lang,5000019,6
Lang,5000020,5
Lang,5000021,5
Lang,5000029,5
Lang,5000030,5
Lang,5000031,6
Lang,5100184,6
Lang,5200061,5
Lang,5200062,4
Lang,5200063,7
Lang,5400057,1
Lang,5400058,2
Lang,5400059,2
Lang,5400060,2
Lang,5400061,1
Lang,5400062,2
Lang,5400063,2
Lang,5400064,2
Lang,5400065,2
Lang,5500013,6
Lang,5500014,6
Lang,5600232,6
Lang,5700127,2
Lang,5800105,10
Lang,5800106,10
Lang,5800107,10
Lang,5800108,10
Lang,5800109,11
Lang,5800110,11
Lang,5800111,11
Lang,5800112,13
Lang,5800113,10
Lang,5800114,12
Lang,5800115,10
Lang,5800116,10
Lang,5900428,9
Lang,5900429,9
Lang,5900430,10
Lang,6000960,10
Lang,6000961,10
Lang,6101021,11
Lang,6101022,12
Lang,6101023,10
Lang,6101024,10
Lang,6101025,10
Lang,6101026,10
Lang,6101027,10
Lang,6101028,10
Lang,6101029,10
Lang,6101030,13
Lang,6200299,14
Lang,6200300,7
Lang,6200301,7
Lang,6200302,7
Lang,6200303,7
Lang,6200304,7
Lang,6200305,7
Lang,6200387,7
Lang,6200393,7
Lang,6200394,7
Lang,6200395,7
Lang,6200396,7
Lang,6200397,7
Lang,6200398,7
Lang,6200399,9
Lang,6200400,7
Lang,6200401,7
Lang,6200402,13
Lang,6400009,7
Lang,6400010,9
Lang,6400011,7
Lang,6500119,3
Lang,6500120,3
Lang,6500121,3
Lang,6500122,3
Lang,6500123,3
Lang,6500124,3
Lang,6500125,3
Lang,6500126,3
Lang,6500127,3
Lang,6500128,3
Lang,6500129,3
Lang,6500130,3
Lang,6500131,3
Lang,6500132,3
Lang,6500133,3
Lang,6500134,3
Lang,6500135,3
Lang,6500136,3
Lang,6500137,3
Lang,6500138,3
Lang,6500139,3
Lang,6500140,3
Lang,6500141,3
Lang,6500142,3
Lang,6500143,3
Lang,6500144,3
Lang,6500145,5
Lang,6500146,3
Lang,6500147,2
Lang,6500148,3
Lang,6500149,3
Lang,6500150,3
Lang,6500151,4
Lang,6500152,3
Lang,6500153,3
Lang,6500154,3
Lang,6500155,3
Lang,6500156,3
Lang,6500157,3
Lang,6500158,3
Lang,6500159,4
Lang,6500160,3
Lang,6500161,3
Lang,6500162,3
Lang,6500163,3
Lang,6500164,3
Lang,6500165,3
Lang,6500166,3
Lang,6500167,4
Lang,6500168,5
Lang,6500169,3
Lang,6500170,3
Lang,6500171,3
Lang,6500172,3
Lang,6500173,3
Lang,6500174,2
Lang,6500175,4
Lang,6500176,3
Lang,6500177,3
Lang,6500178,3
Lang,6500179,3
Lang,6500180,3
Lang,6500181,3
Lang,6500182,3
Lang,6500183,3
Lang,6500184,3
Lang,6500185,3
Lang,6500186,3
Lang,6500187,3
Lang,6500188,3
Lang,6500189,3
Lang,6500190,3
Lang,6500191,3
Lang,6500192,3
Lang,6500193,4
Lang,6500194,3
Lang,6500195,4
Lang,6500294,3
Lang,6500295,4
Lang,6500296,3
Lang,6500297,3
Math,1,40
Math,2,7
Math,3,259
Math,4,11
Math,5,18
Math,6,133
Math,7,41
Math,8,5
Math,9,9
Math,10,69
Math,11,8
Math,12,138
Math,13,72
Math,14,50
Math,15,432
Math,16,405
Math,17,132
Math,18,38
Math,19,33
Math,20,50
Math,21,9
Math,22,18
Math,23,6
Math,24,8
Math,25,2
Math,26,23
Math,27,23
Math,28,13
Math,29,14
Math,30,4
Math,31,46
Math,32,12
Math,33,10
Math,34,4
Math,35,4
Math,36,11
Math,37,24
Math,38,32
Math,39,24
Math,40,17
Math,41,26
Math,42,10
Math,43,16
Math,44,68
Math,45,80
Math,46,316
Math,47,354
Math,48,143
Math,49,100
Math,50,137
Math,51,153
Math,52,119
Math,53,15
Math,54,228
Math,55,116
Math,56,24
Math,57,23
Math,58,28
Math,59,5268
Math,60,121
Math,61,47
Math,62,12
Math,63,2548
Math,64,10
Math,65,13
Math,66,3
Math,67,2
Math,68,7
Math,69,5
Math,70,2
Math,71,38
Math,72,19
Math,73,19
Math,74,20
Math,75,1
Math,76,9
Math,77,30
Math,78,19
Math,79,24
Math,80,9
Math,81,10
Math,82,6
Math,83,6
Math,84,1
Math,85,7
Math,86,5
Math,87,5
Math,88,5
Math,89,1
Math,90,2
Math,91,8
Math,92,17
Math,93,17
Math,94,20
Math,95,5
Math,96,5
Math,97,10
Math,98,8
Math,99,17
Math,100,7
Math,101,4
Math,102,5
Math,103,2
Math,104,6
Math,105,1
Math,106,2
Math,100167,41
Math,100168,45
Math,100169,44
Math,100170,43
Math,100171,41
Math,100172,46
Math,100422,41
Math,100423,41
Math,100424,42
Math,100425,42
Math,100426,42
Math,100427,45
Math,100428,43
Math,100429,42
Math,200125,6
Math,200126,6
Math,200127,6
Math,200128,7
Math,200129,7
Math,200130,7
Math,200131,6
Math,200132,5
Math,300277,273
Math,300278,256
Math,300279,252
Math,300280,250
Math,300281,229
Math,300282,381
Math,300283,396
Math,300284,216
Math,300285,219
Math,300286,222
Math,300287,207
Math,300288,254
Math,400010,12
Math,400036,15
Math,500221,14
Math,600002,30
Math,600043,133
Math,600044,138
Math,600049,144
Math,600050,149
Math,600107,143
Math,600108,141
Math,600109,143
Math,600110,141
Math,600111,145
Math,600112,147
Math,600113,139
Math,600114,133
Math,600115,151
Math,600116,137
Math,600117,168
Math,600118,175
Math,600119,135
Math,600207,131
Math,601074,159
Math,601212,134
Math,601213,139
Math,601214,134
Math,601231,162
Math,601252,161
Math,601253,136
Math,601348,143
Math,700071,41
Math,700072,43
Math,700073,43
Math,700074,43
Math,700083,44
Math,700084,44
Math,700085,49
Math,700086,43
Math,700087,40
Math,700088,39
Math,800046,4
Math,900022,7
Math,900023,8
Math,1001830,69
Math,1100036,9
Math,1100037,10
Math,1100038,9
Math,1100039,8
Math,1100040,9
Math,1100041,9
Math,1100042,9
Math,1100043,9
Math,1100044,9
Math,1100045,12
Math,1100046,9
Math,1100047,15
Math,1100048,9
Math,1100049,9
Math,1100050,14
Math,1100051,12
Math,1100052,9
Math,1100053,8
Math,1100054,10
Math,1100055,12
Math,1100056,15
Math,1100057,9
Math,1100058,11
Math,1100059,9
Math,1300074,20
Math,1300075,20
Math,1300076,36
Math,1300077,21
Math,1300078,20
Math,1300079,24
Math,1300080,20
Math,1400001,16
Math,1400043,21
Math,1400044,18
Math,1400045,28
Math,1400046,20
Math,1400047,22
Math,1400048,25
Math,1400049,24
Math,1503755,440
Math,1503756,416
Math,1503757,416
Math,1503758,507
Math,1503759,417
Math,1503760,439
Math,1503761,462
Math,1503762,517
Math,1600399,423
Math,1600400,521
Math,1600401,768
Math,1600402,448
Math,1600403,410
Math,1600404,486
Math,1600405,786
Math,1600406,399
Math,1600407,429
Math,1600408,409
Math,1600409,427
Math,1600410,436
Math,1600411,413
Math,1600412,406
Math,1600413,409
Math,1600414,394
Math,1600415,493
Math,1600422,428
Math,1600423,425
Math,1600424,415
Math,1600425,489
Math,1600426,510
Math,1600427,413
Math,1600428,422
Math,1600429,443
Math,1600430,393
Math,1600431,413
Math,1600432,439
Math,1600433,412
Math,1600434,408
Math,1600435,397
Math,1600436,441
Math,1600437,412
Math,1600438,405
Math,1600439,431
Math,1600440,416
Math,1600441,410
Math,1600442,425
Math,1600443,428
Math,1600611,436
Math,1600612,499
Math,1600613,416
Math,1600614,422
Math,1600615,415
Math,1600616,489
Math,1600617,515
Math,1600618,509
Math,1600619,495
Math,1600620,483
Math,1600621,510
Math,1600622,747
Math,1600623,779
Math,1600624,415
Math,1600625,420
Math,1600626,397
Math,1600627,423
Math,1600634,409
Math,1600635,412
Math,1600636,411
Math,1600637,437
Math,1600638,420
Math,1600639,405
Math,1600640,431
Math,1600641,410
Math,1600642,417
Math,1600643,432
Math,1600644,434
Math,1600645,423
Math,1600646,417
Math,1600647,422
Math,1600648,427
Math,1600649,413
Math,1600650,432
Math,1600651,531
Math,1600652,483
Math,1600653,529
Math,1600654,518
Math,1600655,494
Math,1600656,482
Math,1701597,127
Math,1701598,107
Math,1701599,100
Math,1701600,112
Math,1701601,104
Math,1701602,107
Math,1800936,40
Math,1800937,40
Math,1800938,47
Math,1800939,40
Math,1800940,44
Math,1800959,41
Math,1800960,46
Math,1800961,41
Math,1800962,44
Math,1800963,40
Math,1900169,29
Math,1900170,28
Math,1900171,29
Math,1900172,30
Math,1900173,28
Math,1900174,28
Math,1900175,29
Math,1900176,29
Math,1900177,33
Math,1900178,30
Math,1900179,29
Math,1900180,28
Math,1900181,28
Math,1900182,28
Math,2000763,39
Math,2100004,8
Math,2100011,10
Math,2100017,10
Math,2100018,11
Math,2100019,11
Math,2100020,9
Math,2100021,10
Math,2100022,11
Math,2100023,11
Math,2100024,10
Math,2100025,8
Math,2100026,11
Math,2100027,9
Math,2100044,11
Math,2100045,18
Math,2100046,8
Math,2100047,9
Math,2100048,9
Math,2100049,9
Math,2100060,11
Math,2100061,9
Math,2100062,9
Math,2100063,9
Math,2100064,10
Math,2100065,8
Math,2100066,8
Math,2100067,8
Math,2100068,11
Math,2200196,17
Math,2200269,15
Math,2300287,7
Math,2300291,6
Math,2300328,7
Math,2400288,7
Math,2400326,6
Math,2500206,2
Math,2500207,3
Math,2500208,2
Math,2500209,3
Math,2600031,50
Math,2600032,26
Math,2600080,32
Math,2600081,25
Math,2600082,33
Math,2600083,30
Math,2600084,25
Math,2600085,23
Math,2700307,23
Math,2700308,23
Math,2700309,27
Math,2700310,23
Math,2700311,42
Math,2700312,26
Math,2800057,11
Math,2800058,11
Math,2800059,11
Math,2800060,11
Math,2800061,11
Math,2900095,14
Math,2900096,14
Math,2900097,15
Math,2900098,17
Math,2900099,14
Math,2900100,15
Math,2900101,14
Math,2900102,13
Math,2900103,18
Math,2900114,17
Math,2900115,15
Math,2900116,14
Math,2900117,14
Math,2900118,16
Math,2900119,18
Math,2900120,14
Math,2900121,20
Math,2900122,13
Math,2900123,14
Math,2900124,15
Math,2900125,15
Math,2900126,15
Math,3000063,3
Math,3000064,4
Math,3000065,3
Math,3000066,4
Math,3100011,36
Math,3100015,38
Math,3100016,1420
Math,3100017,1939
Math,3100018,6158
Math,3100019,39
Math,3100020,1339
Math,3100021,9787
Math,3100022,7540
Math,3100023,45
Math,3100024,40
Math,3100025,46
Math,3100026,230
Math,3100027,412
Math,3100028,37
Math,3100029,1971
Math,3100030,3801
Math,3100031,6706
Math,3100032,119
Math,3100033,400
Math,3100034,2408
Math,3100036,5528
Math,3100037,5455
Math,3100038,12749
Math,3100039,6046
Math,3100040,8169
Math,3100041,382
Math,3100042,4630
Math,3100043,35474
Math,3100044,11755
Math,3100045,37
Math,3100046,5162
Math,3100047,7998
Math,3100048,45
Math,3100049,40
Math,3100050,38
Math,3100051,48
Math,3100052,37
Math,3100064,9368
Math,3100065,285
Math,3100066,41
Math,3200007,9
Math,3200008,11
Math,3300234,11
Math,3300235,10
Math,3300236,11
Math,3300237,12
Math,3300238,11
Math,3300239,12
Math,3300240,11
Math,3400035,4
Math,3500001,2
Math,3500002,3
Math,3600237,13
Math,3600238,12
Math,3600239,12
Math,3600240,13
Math,3600241,11
Math,3600242,12
Math,3600243,11
Math,3600244,12
Math,3600245,13
Math,3600261,12
Math,3600262,12
Math,3600263,11
Math,3600264,11
Math,3600265,14
Math,3600266,11
Math,3600267,11
Math,3600268,11
Math,3600269,12
Math,3600270,13
Math,3700491,27
Math,3700492,21
Math,3700494,23
Math,3700495,23
Math,3700496,28
Math,3700497,23
Math,3700498,23
Math,3700499,28
Math,3700500,30
Math,3700501,25
Math,3700502,24
Math,3700503,24
Math,3700504,23
Math,3700505,23
Math,3700506,23
Math,3700507,22
Math,3700508,23
Math,3700509,22
Math,3700510,23
Math,3700535,22
Math,3700536,22
Math,3700538,23
Math,3700539,22
Math,3700540,22
Math,3700541,22
Math,3700542,24
Math,3700543,21
Math,3700544,21
Math,3700545,28
Math,3700546,23
Math,3700547,23
Math,3700548,23
Math,3700549,28
Math,3700550,23
Math,3700551,22
Math,3700552,27
Math,3700553,27
Math,3700554,22
Math,3801268,33
Math,3801269,43
Math,3801270,36
Math,3801271,38
Math,3801272,31
Math,3801273,33
Math,3801274,42
Math,3801275,35
Math,3801276,35
Math,3801277,34
Math,3801278,35
Math,3801279,35
Math,3900116,22
Math,3900117,22
Math,3900118,24
Math,3900120,24
Math,3900122,22
Math,3900126,23
Math,3900131,1570
Math,4000172,19
Math,4000173,19
Math,4000174,17
Math,4000175,18
Math,4000176,18
Math,4000177,20
Math,4000178,17
Math,4000179,18
Math,4000180,18
Math,4000181,20
Math,4000182,18
Math,4000183,17
Math,4000184,20
Math,4000185,22
Math,4000186,21
Math,4000187,19
Math,4000188,23
Math,4000189,21
Math,4000190,21
Math,4000191,31
Math,4000192,18
Math,4000193,23
Math,4000194,19
Math,4000195,18
Math,4000196,18
Math,4000197,18
Math,4000198,18
Math,4000199,17
Math,4000200,18
Math,4000201,19
Math,4000202,18
Math,4000203,17
Math,4000204,19
Math,4000205,18
Math,4000206,18
Math,4000207,18
Math,4000208,20
Math,4000209,18
Math,4000212,18
Math,4000213,17
Math,4000214,18
Math,4000215,18
Math,4000216,18
Math,4000217,18
Math,4000218,18
Math,4000219,17
Math,4000220,19
Math,4000221,21
Math,4000222,19
Math,4000223,22
Math,4000224,21
Math,4000225,23
Math,4000226,17
Math,4000227,21
Math,4000228,17
Math,4000229,19
Math,4000230,19
Math,4000231,17
Math,4000232,23
Math,4000233,18
Math,4000234,17
Math,4000235,19
Math,4000236,18
Math,4000237,18
Math,4000238,17
Math,4000239,18
Math,4000240,18
Math,4000241,19
Math,4000242,19
Math,4000243,19
Math,4000244,18
Math,4100154,27
Math,4100155,28
Math,4100156,27
Math,4100157,28
Math,4100158,28
Math,4100159,27
Math,4200331,12
Math,4200332,11
Math,4200333,10
Math,4200334,11
Math,4200335,9
Math,4200336,11
Math,4200337,11
Math,4200338,11
Math,4200339,11
Math,4200340,11
Math,4200341,11
Math,4200342,12
Math,4300030,15
Math,4400087,43
Math,4500001,80
Math,4500002,73
Math,4500003,73
Math,4500004,73
Math,4500005,71
Math,4500006,78
Math,4500007,73
Math,4600107,315
Math,4600195,318
Math,4700028,311
Math,4700029,327
Math,4700030,311
Math,4700031,301
Math,4700032,328
Math,4700033,320
Math,4700034,327
Math,4700035,313
Math,4700036,376
Math,4700037,299
Math,4700038,333
Math,4700039,298
Math,4700040,301
Math,4700112,331
Math,4700113,291
Math,4700114,321
Math,4700199,315
Math,4800074,134
Math,4800075,153
Math,4800076,135
Math,4900091,101
Math,4900100,98
Math,4900103,107
Math,4900112,99
Math,5000073,137
Math,5100074,136
Math,5100075,141
Math,5100076,139
Math,5100077,139
Math,5100078,142
Math,5100079,136
Math,5100080,136
Math,5100081,141
Math,5100082,157
Math,5100083,135
Math,5100084,137
Math,5100085,136
Math,5100086,157
Math,5100087,137
Math,5100088,230
Math,5100089,152
Math,5100090,134
Math,5100091,154
Math,5100092,159
Math,5200589,119
Math,5200590,135
Math,5200591,122
Math,5200592,135
Math,5200593,122
Math,5200594,125
Math,5200595,123
Math,5200601,122
Math,5200602,127
Math,5200603,120
Math,5200604,113
Math,5200605,121
Math,5200608,119
Math,5200609,124
Math,5200610,124
Math,5300075,16
Math,5300076,17
Math,5300077,15
Math,5400083,237
Math,5400084,242
Math,5400085,241
Math,5400086,229
Math,5400087,231
Math,5400088,239
Math,5400089,234
Math,5400090,232
Math,5400091,234
Math,5402478,240
Math,5402479,234
Math,5402480,241
Math,5402481,244
Math,5402482,229
Math,5402483,224
Math,5402484,243
Math,5402485,219
Math,5402486,243
Math,5402487,234
Math,5402488,268
Math,5402489,234
Math,5402490,232
Math,5402491,282
Math,5402492,284
Math,5402493,283
Math,5500491,131
Math,5500492,119
Math,5500493,120
Math,5500494,131
Math,5500495,116
Math,5500496,123
Math,5500497,121
Math,5500498,123
Math,5500499,121
Math,5500500,122
Math,5500501,121
Math,5500502,121
Math,5500503,122
Math,5500504,126
Math,5500505,120
Math,5500506,121
Math,5500507,123
Math,5500508,122
Math,5500509,139
Math,5500510,124
Math,5500511,144
Math,5500512,125
Math,5500513,142
Math,5500514,137
Math,5500515,119
Math,5500516,132
Math,5500517,128
Math,5500518,121
Math,5500519,121
Math,5500520,122
Math,5500521,118
Math,5500522,124
Math,5500523,124
Math,5500524,121
Math,5500525,121
Math,5500526,121
Math,5500527,121
Math,5500528,136
Math,5500529,124
Math,5500530,123
Math,5500531,121
Math,5500532,124
Math,5500533,128
Math,5500534,125
Math,5500535,126
Math,5500536,114
Math,5500537,121
Math,5500538,124
Math,5500539,121
Math,5500540,120
Math,5500541,123
Math,5500542,126
Math,5500543,204
Math,5500544,205
Math,5500545,136
Math,5500546,138
Math,5500547,121
Math,5500548,139
Math,5500549,137
Math,5500550,120
Math,5500551,121
Math,5500552,124
Math,5500553,119
Math,5500554,121
Math,5500555,117
Math,5500556,123
Math,5500557,124
Math,5500558,126
Math,5500559,119
Math,5500560,138
Math,5500561,122
Math,5500562,132
Math,5500563,122
Math,5500564,136
Math,5500565,127
Math,5500566,122
Math,5500567,126
Math,5500568,118
Math,5500569,123
Math,5500570,131
Math,5500571,129
Math,5500572,121
Math,5500573,123
Math,5500574,138
Math,5500575,125
Math,5500576,121
Math,5500577,122
Math,5500578,136
Math,5500579,119
Math,5500580,121
Math,5500581,137
Math,5500582,140
Math,5500583,120
Math,5500584,118
Math,5500585,120
Math,5500586,114
Math,5500587,125
Math,5500588,140
Math,5500589,205
Math,5500590,140
Math,5500591,123
Math,5500592,123
Math,5500593,122
Math,5500594,125
Math,5500595,120
Math,5500596,122
Math,5500597,136
Math,5500598,123
Math,5500599,123
Math,5500600,136
Math,5500601,123
Math,5500602,122
Math,5500603,113
Math,5500604,121
Math,5500605,119
Math,5500606,121
Math,5500607,123
Math,5500608,126
Math,5500609,121
Math,5500610,138
Math,5500611,124
Math,5500612,114
Math,5600100,27
Math,5600101,24
Math,5600102,24
Math,5600103,23
Math,5600104,23
Math,5700033,21
Math,5800008,3
Math,5908273,6352
Math,5908274,6439
Math,5908275,5740
Math,5908276,5746
Math,6000047,107
Math,6000048,134
Math,6000049,104
Math,6000050,99
Math,6000051,108
Math,6000052,105
Math,6000053,135
Math,6000054,109
Math,6000055,118
Math,6000056,109
Math,6000057,106
Math,6000058,108
Math,6000059,124
Math,6000060,107
Math,6200006,10
Math,6200007,11
Math,6200008,11
Math,6200009,11
Math,6200010,11
Math,6200011,10
Math,6200016,11
Math,6200017,11
Math,6200018,11
Math,6200019,11
Math,6200020,11
Math,6200021,18
Math,6200022,11
Math,6200023,12
Math,6200024,10
Math,6200025,10
Math,6200026,11
Math,6200027,11
Math,6200028,12
Math,6300331,2791
Math,6400026,6
Math,6400033,8
Math,6400034,6
Math,6400035,6
Math,6400036,7
Math,6400041,6
Math,6400098,11
Math,6400099,10
Math,6400100,9
Math,6400101,9
Math,6400102,6
Math,6400128,7
Math,6400348,7
Math,6400349,7
Math,6400350,6
Math,6400351,10
Math,6400352,8
Math,6400353,9
Math,6500049,12
Math,6500050,17
Math,6500051,10
Math,6500052,11
Math,6500059,11
Math,6500060,11
Math,6500061,12
Math,6500062,11
Math,6500063,12
Math,6500064,11
Math,6500065,9
Math,6500066,13
Math,6500067,12
Math,6600014,4
Math,6600015,4
Math,6600016,4
Math,6600020,4
Math,6600021,4
Math,6600022,4
Math,6600023,4
Math,6600024,4
Math,6600025,3
Math,6600026,4
Math,6600037,4
Math,6600038,4
Math,6600039,3
Math,6600282,4
Math,6600283,4
Math,6600284,3
Math,6600332,3
Math,6600334,4
Math,6700006,2
Math,6700007,2
Math,6700008,2
Math,6800003,6
Math,6800031,7
Math,6800033,14
Math,6800107,8
Math,6800153,6
Math,6800356,5
Math,6800357,7
Math,6800358,8
Math,6800359,8
Math,6800386,6
Math,6900083,5
Math,6900084,5
Math,6900085,6
Math,6900086,6
Math,6900087,5
Math,6900088,5
Math,6900089,5
Math,6900090,6
Math,7000010,2
Math,7100140,33
Math,7100141,40
Math,7100142,35
Math,7100143,47
Math,7100144,40
Math,7100145,36
Math,7100146,36
Math,7100147,37
Math,7100388,35
Math,7100389,34
Math,7100390,42
Math,7100391,33
Math,7100392,32
Math,7100393,35
Math,7100394,35
Math,7100395,39
Math,7300028,21
Math,7300029,20
Math,7300030,20
Math,7400079,8
Math,7400082,10
Math,7400083,15
Math,7400085,22
Math,7400086,20
Math,7400091,17
Math,7400094,26
Math,7400095,16
Math,7400097,20
Math,7400098,20
Math,7500045,2
Math,7600085,8
Math,7600086,9
Math,7600087,7
Math,7600088,7
Math,7600089,8
Math,7600090,7
Math,7600091,7
Math,7600092,7
Math,7600093,9
Math,7600094,8
Math,7600095,7
Math,7600096,8
Math,7600097,7
Math,7600098,7
Math,7600099,7
Math,7600100,7
Math,7600105,7
Math,7600106,7
Math,7600107,8
Math,7600111,7
Math,7600112,7
Math,7600113,9
Math,7600114,12
Math,7600115,7
Math,7600116,8
Math,7600117,8
Math,7600118,7
Math,7600150,8
Math,7600151,7
Math,7600152,7
Math,7600153,7
Math,7600154,7
Math,7600155,8
Math,7600156,7
Math,7600157,7
Math,7600158,7
Math,7600209,9
Math,7600210,8
Math,7600211,7
Math,7600212,8
Math,7600213,8
Math,7600214,8
Math,7600215,7
Math,7600216,7
Math,7600217,7
Math,7600218,10
Math,7600219,7
Math,7600220,7
Math,7600221,8
Math,7600222,8
Math,7600223,8
Math,7600224,7
Math,7600229,8
Math,7600230,11
Math,7600231,7
Math,7600235,7
Math,7600236,7
Math,7600237,8
Math,7600238,7
Math,7600239,8
Math,7600240,8
Math,7600241,7
Math,7600242,7
Math,7600274,7
Math,7600275,7
Math,7600276,7
Math,7600277,7
Math,7600278,6
Math,7600279,9
Math,7600280,7
Math,7600281,7
Math,7600282,7
Math,7700376,29
Math,7800050,19
Math,7800051,21
Math,7800052,21
Math,7800053,23
Math,7800054,18
Math,7800055,19
Math,7800056,19
Math,7800057,18
Math,7800058,18
Math,7800059,20
Math,7800060,20
Math,7800061,19
Math,7800062,20
Math,7800063,19
Math,7800064,18
Math,7800065,19
Math,7901226,28
Math,7901227,43
Math,7901231,27
Math,7901232,25
Math,7901233,25
Math,7901234,26
Math,8001607,10
Math,8001608,9
Math,8001609,9
Math,8001610,10
Math,8001611,9
Math,8001612,11
Math,8001613,11
Math,8100910,9
Math,8100911,11
Math,8100912,9
Math,8100913,10
Math,8100914,9
Math,8100915,9
Math,8100917,9
Math,8100918,8
Math,8100919,9
Math,8100920,10
Math,8100921,9
Math,8100922,9
Math,8100923,10
Math,8100924,9
Math,8100925,11
Math,8100926,10
Math,8100927,10
Math,8100928,16
Math,8100929,10
Math,8100930,10
Math,8100931,10
Math,8102754,10
Math,8102755,11
Math,8102756,11
Math,8102757,15
Math,8102758,9
Math,8200030,6
Math,8200031,6
Math,8200032,6
Math,8200033,6
Math,8200034,5
Math,8200035,5
Math,8200036,6
Math,8300193,6
Math,8300194,6
Math,8300272,6
Math,8300280,6
Math,8300281,6
Math,8300282,5
Math,8300283,5
Math,8400005,2
Math,8400024,2
Math,8400025,2
Math,8400026,1
Math,8400027,2
Math,8500056,7
Math,8500057,6
Math,8500058,5
Math,8500059,5
Math,8600033,5
Math,8600034,5
Math,8700193,6
Math,8700194,5
Math,8700195,5
Math,8700196,5
Math,8700197,7
Math,8700198,5
Math,8700200,6
Math,8700201,5
Math,8700202,6
Math,8700203,5
Math,8800270,9
Math,8800279,6
Math,8800280,6
Math,8800281,6
Math,8800282,6
Math,8800283,6
Math,9000010,2
Math,9100149,7
Math,9100150,6
Math,9100151,8
Math,9100152,7
Math,9100153,7
Math,9100154,7
Math,9100155,8
Math,9100156,7
Math,9200058,15
Math,9200059,16
Math,9200060,16
Math,9200061,16
Math,9200062,16
Math,9200063,15
Math,9200064,16
Math,9200065,17
Math,9200066,17
Math,9200067,15
Math,9200068,19
Math,9200069,15
Math,9200070,15
Math,9200071,15
Math,9200072,14
Math,9200073,16
Math,9200074,15
Math,9200075,24
Math,9200076,15
Math,9200077,15
Math,9200078,16
Math,9200079,14
Math,9200080,14
Math,9200081,14
Math,9200082,17
Math,9200083,974
Math,9200084,15
Math,9200085,15
Math,9200086,15
Math,9200087,14
Math,9200088,16
Math,9200089,17
Math,9200090,15
Math,9200091,16
Math,9200092,17
Math,9200093,16
Math,9200094,22
Math,9200095,17
Math,9200096,18
Math,9200097,17
Math,9200098,17
Math,9200099,17
Math,9200100,19
Math,9200101,17
Math,9200102,18
Math,9200103,16
Math,9200104,17
Math,9200105,18
Math,9200106,17
Math,9200107,17
Math,9200108,1273
Math,9200109,29
Math,9200110,17
Math,9200111,17
Math,9200112,18
Math,9200113,18
Math,9200114,18
Math,9200115,17
Math,9200116,18
Math,9200117,20
Math,9200118,18
Math,9200119,17
Math,9200120,19
Math,9200121,18
Math,9200122,17
Math,9200123,18
Math,9200124,17
Math,9200125,18
Math,9200126,17
Math,9200127,17
Math,9200128,16
Math,9200129,17
Math,9200130,18
Math,9200131,18
Math,9200132,17
Math,9200133,16
Math,9200134,18
Math,9200135,16
Math,9200136,19
Math,9200137,19
Math,9200138,17
Math,9200139,18
Math,9200140,17
Math,9200141,20
Math,9200142,29
Math,9200143,16
Math,9200144,19
Math,9200145,17
Math,9200146,16
Math,9200147,16
Math,9200148,17
Math,9200149,18
Math,9200150,16
Math,9200151,17
Math,9200152,17
Math,9200153,17
Math,9200154,17
Math,9200155,18
Math,9200157,17
Math,9200158,17
Math,9200159,18
Math,9200160,17
Math,9200161,19
Math,9200162,19
Math,9200163,18
Math,9200164,19
Math,9200165,19
Math,9200166,17
Math,9200167,17
Math,9200168,17
Math,9200169,16
Math,9200170,20
Math,9200171,16
Math,9200172,17
Math,9200173,18
Math,9200174,17
Math,9200175,20
Math,9200176,16
Math,9200177,31
Math,9200178,18
Math,9200179,18
Math,9200180,16
Math,9200181,17
Math,9200182,17
Math,9200183,16
Math,9200184,18
Math,9200185,19
Math,9200186,17
Math,9200187,18
Math,9200188,17
Math,9200189,17
Math,9200190,17
Math,9200191,19
Math,9200192,16
Math,9200193,18
Math,9200194,20
Math,9200195,16
Math,9200196,17
Math,9200197,17
Math,9200198,17
Math,9200199,16
Math,9200200,16
Math,9200201,19
Math,9200202,17
Math,9200203,17
Math,9200204,17
Math,9200205,18
Math,9200206,29
Math,9200222,14
Math,9200223,16
Math,9200224,15
Math,9200225,17
Math,9300184,18
Math,9300185,16
Math,9300186,17
Math,9300187,16
Math,9300188,19
Math,9300189,16
Math,9300190,16
Math,9300191,18
Math,9300192,22
Math,9300193,17
Math,9300198,18
Math,9300199,16
Math,9300200,17
Math,9300201,16
Math,9300202,17
Math,9300207,18
Math,9300208,16
Math,9400170,16
Math,9400171,15
Math,9400175,18
Math,9400176,17
Math,9400178,19
Math,9400181,15
Math,9500054,3
Math,9500055,4
Math,9500056,4
Math,9500057,3
Math,9500058,4
Math,9600182,6
Math,9600183,6
Math,9600184,8
Math,9600185,7
Math,9600186,6
Math,9600187,5
Math,9600188,6
Math,9600189,6
Math,9700039,8
Math,9700040,7
Math,9700041,9
Math,9700042,7
Math,9700043,9
Math,9700044,8
Math,9700045,9
Math,9700046,9
Math,9800400,9
Math,9801092,9
Math,9900424,14
Math,9900425,16
Math,9900426,17
Math,9900427,18
Math,9900428,16
Math,9900429,17
Math,9900430,17
Math,9900606,16
Math,9900607,17
Math,10000082,8
Math,10000114,7
Math,10000117,13
Math,10100071,4
Math,10100072,3
Math,10100073,4
Math,10100074,4
Math,10100078,4
Math,10100079,3
Math,10100080,4
Math,10200016,5
Math,10200017,5
Math,10200018,5
Math,10200019,5
Math,10200020,4
Math,10200021,5
Math,10200022,5
Math,10200023,4
Math,10200024,5
Math,10200025,6
Math,10200026,5
Math,10200027,5
Math,10200028,5
Math,10200029,5
Math,10200030,5
Math,10200031,5
Math,10200032,5
Math,10200038,4
Math,10200039,5
Math,10200040,5
Math,10200041,5
Math,10200042,8
Math,10200043,6
Math,10200044,5
Math,10200045,5
Math,10200046,5
Math,10200047,5
Math,10200048,4
Math,10200049,6
Math,10200050,5
Math,10200051,6
Math,10200052,5
Math,10200053,5
Math,10200054,5
Math,10200055,5
Math,10200056,5
Math,10200057,5
Math,10200058,5
Math,10200059,5
Math,10200060,6
Math,10300039,2
Math,10300040,2
Math,10300041,3
Math,10300042,2
Math,10300043,3
Math,10300044,3
Math,10500150,1
Math,10500151,2
Math,10500152,1
Math,10500153,1
Math,10500154,1
Math,10500155,1
Math,10500156,3
Math,10500157,1
Math,10500158,2
Math,10500159,2
Math,10500160,1
Math,10500161,1
Math,10500162,1
Math,10500163,1
Math,10600034,2
Math,10600035,2
Math,10600036,2
Math,10600040,2
Math,10600041,3
Math,10600042,2
Mockito,1,473
Mockito,2,13
Mockito,3,473
Mockito,4,296
Mockito,5,16
Mockito,6,257
Mockito,7,14
Mockito,8,9
Mockito,9,242
Mockito,10,296
Mockito,11,226
Mockito,12,6
Mockito,13,137
Mockito,14,140
Mockito,15,9
Mockito,16,116
Mockito,17,116
Mockito,18,474
Mockito,19,412
Mockito,20,504
Mockito,21,6
Mockito,22,105
Mockito,23,244
Mockito,24,295
Mockito,25,245
Mockito,26,206
Mockito,27,161
Mockito,28,12
Mockito,29,16
Mockito,30,127
Mockito,31,149
Mockito,32,157
Mockito,33,131
Mockito,34,130
Mockito,35,170
Mockito,36,125
Mockito,37,61
Mockito,38,21
Mockito,100063,440
Mockito,100064,422
Mockito,100065,513
Mockito,100066,488
Mockito,100067,437
Mockito,100068,472
Mockito,100069,463
Mockito,100070,447
Mockito,200001,14
Mockito,200009,15
Mockito,200010,14
Mockito,200011,11
Mockito,200012,12
Mockito,200013,12
Mockito,200014,13
Mockito,300066,466
Mockito,300067,459
Mockito,300068,451
Mockito,300069,477
Mockito,300070,469
Mockito,300076,471
Mockito,300077,441
Mockito,300078,462
Mockito,300079,451
Mockito,300080,493
Mockito,400016,267
Mockito,600002,298
Mockito,600003,257
Mockito,600004,250
Mockito,600005,290
Mockito,600006,410
Mockito,600007,287
Mockito,600008,280
Mockito,600009,280
Mockito,600010,275
Mockito,600012,255
Mockito,600013,307
Mockito,600014,324
Mockito,600015,266
Mockito,600016,313
Mockito,600017,274
Mockito,600018,277
Mockito,600019,266
Mockito,600020,329
Mockito,600021,292
Mockito,600022,278
Mockito,700072,14
Mockito,800012,9
Mockito,900001,289
Mockito,900002,257
Mockito,1000012,304
Mockito,1000013,252
Mockito,1000014,290
Mockito,1000016,299
Mockito,1000017,270
Mockito,1100013,216
Mockito,1100014,198
Mockito,1100015,227
Mockito,1200007,7
Mockito,1300012,132
Mockito,1300015,140
Mockito,1400020,128
Mockito,1400089,135
Mockito,1400090,126
Mockito,1400091,126
Mockito,1500006,12
Mockito,1500007,12
Mockito,1600009,129
Mockito,1600039,114
Mockito,1600040,111
Mockito,1700009,106
Mockito,1700010,110
Mockito,1700011,110
Mockito,1700042,108
Mockito,1700043,109
Mockito,1700044,106
Mockito,1700072,107
Mockito,1800024,473
Mockito,1800025,541
Mockito,1900021,684
Mockito,1900046,426
Mockito,1900048,430
Mockito,1900049,452
Mockito,1900050,431
Mockito,1900051,431
Mockito,1900052,437
Mockito,1900053,453
Mockito,1900054,419
Mockito,1900055,445
Mockito,1900056,448
Mockito,2100004,5
Mockito,2100005,7
Mockito,2100006,6
Mockito,2100007,6
Mockito,2100008,6
Mockito,2100009,6
Mockito,2100010,7
Mockito,2100011,6
Mockito,2100012,8
Mockito,2200001,109
Mockito,2200002,112
Mockito,2200003,114
Mockito,2200004,225
Mockito,2200005,121
Mockito,2300003,246
Mockito,2300004,242
Mockito,2300009,264
Mockito,2300010,249
Mockito,2300011,247
Mockito,2300012,272
Mockito,2300027,274
Mockito,2300028,265
Mockito,2400012,272
Mockito,2400013,308
Mockito,2400014,247
Mockito,2400015,244
Mockito,2400016,269
Mockito,2400017,281
Mockito,2400018,290
Mockito,2500007,229
Mockito,2500013,233
Mockito,2500014,237
Mockito,2500015,221
Mockito,2500016,389
Mockito,2500017,256
Mockito,2500018,242
Mockito,2500019,243
Mockito,2500020,256
Mockito,2600051,185
Mockito,2600052,191
Mockito,2600053,166
Mockito,2700020,169
Mockito,2800015,11
Mockito,2800016,12
Mockito,2900005,15
Mockito,2900006,15
Mockito,3000018,155
Mockito,3100006,131
Mockito,3100007,142
Mockito,3100008,135
Mockito,3100009,130
Mockito,3100010,126
Mockito,3100011,131
Mockito,3100012,125
Mockito,3100013,136
Mockito,3100014,131
Mockito,3200011,138
Mockito,3300041,120
Mockito,3300042,132
Mockito,3300043,118
Mockito,3300044,126
Mockito,3300045,126
Mockito,3300046,139
Mockito,3300047,125
Mockito,3300048,127
Mockito,3300049,133
Mockito,3300050,207
Mockito,3300051,132
Mockito,3300052,134
Mockito,3300053,145
Mockito,3400044,115
Mockito,3400045,123
Mockito,3400046,152
Mockito,3400047,180
Mockito,3400048,124
Mockito,3500022,115
Mockito,3500031,114
Mockito,3500033,107
Mockito,3600114,140
Mockito,3600115,187
Mockito,3600116,139
Mockito,3700005,61
Mockito,3700006,57
Mockito,3700007,66
Mockito,3700008,57
Mockito,3800020,23
Time,1,422
Time,2,490
Time,3,182
Time,4,117
Time,5,191
Time,6,314
Time,7,299
Time,8,335
Time,9,294
Time,10,39
Time,11,7
Time,12,185
Time,13,109
Time,14,422
Time,15,209
Time,16,337
Time,17,374
Time,18,252
Time,19,390
Time,20,316
Time,21,375
Time,22,184
Time,23,248
Time,24,146
Time,25,355
Time,26,427
Time,27,66
Time,100032,466
Time,100033,388
Time,100034,388
Time,100035,394
Time,100036,411
Time,100037,432
Time,100038,421
Time,100039,409
Time,100048,394
Time,100049,388
Time,100050,355
Time,100051,396
Time,100052,462
Time,100053,409
Time,100423,414
Time,200033,451
Time,200034,465
Time,200035,463
Time,200399,450
Time,200400,453
Time,200401,476
Time,200402,425
Time,300058,161
Time,300059,177
Time,300060,174
Time,300061,163
Time,300064,169
Time,300065,155
Time,300066,269
Time,300067,176
Time,300070,150
Time,300071,351
Time,300074,149
Time,300075,169
Time,300076,156
Time,300077,178
Time,300080,149
Time,300081,182
Time,300082,180
Time,300083,153
Time,300088,181
Time,300089,153
Time,300090,159
Time,300091,155
Time,300094,148
Time,300095,177
Time,300099,164
Time,300103,170
Time,300107,152
Time,400204,118
Time,500517,211
Time,500518,208
Time,500519,196
Time,500520,228
Time,500521,217
Time,500522,200
Time,500523,220
Time,500524,199
Time,500525,198
Time,500526,204
Time,500527,196
Time,500528,206
Time,500529,203
Time,500530,202
Time,500531,339
Time,500532,212
Time,500533,209
Time,500534,210
Time,500535,192
Time,500536,211
Time,500537,214
Time,500538,218
Time,500539,194
Time,500540,204
Time,500541,210
Time,500542,218
Time,500543,185
Time,500544,200
Time,500545,222
Time,500546,223
Time,500547,219
Time,500548,222
Time,500549,200
Time,500550,197
Time,500551,193
Time,500552,221
Time,500553,217
Time,500554,194
Time,500555,216
Time,500556,221
Time,600021,271
Time,600237,314
Time,600238,318
Time,600239,311
Time,600240,359
Time,600241,322
Time,600242,320
Time,600243,312
Time,600244,306
Time,600245,535
Time,600246,342
Time,600247,320
Time,600248,301
Time,600249,303
Time,600250,305
Time,600251,327
Time,600252,308
Time,600253,305
Time,600254,288
Time,700114,342
Time,800048,323
Time,800051,335
Time,800054,353
Time,800055,339
Time,800056,294
Time,800058,332
Time,800059,310
Time,800060,331
Time,800061,306
Time,800063,309
Time,800065,316
Time,800066,308
Time,800067,332
Time,800069,337
Time,800080,335
Time,800081,326
Time,800082,331
Time,800083,330
Time,800084,337
Time,900038,336
Time,900041,333
Time,900045,287
Time,900060,530
Time,900061,314
Time,900062,336
Time,900063,338
Time,900064,328
Time,900065,336
Time,900070,343
Time,900071,372
Time,900072,323
Time,900073,318
Time,900074,319
Time,900076,339
Time,900077,318
Time,900079,312
Time,900084,327
Time,900086,346
Time,1000026,39
Time,1100001,7
Time,1200007,193
Time,1200009,195
Time,1200010,176
Time,1200011,201
Time,1200012,200
Time,1200013,188
Time,1200014,182
Time,1200015,202
Time,1200016,209
Time,1200017,186
Time,1200018,189
Time,1200019,195
Time,1200020,186
Time,1200021,195
Time,1200022,171
Time,1200024,200
Time,1200025,208
Time,1200026,190
Time,1200027,208
Time,1200390,211
Time,1200392,208
Time,1200393,211
Time,1200394,209
Time,1200395,211
Time,1200396,214
Time,1200397,210
Time,1200398,331
Time,1200399,196
Time,1200400,210
Time,1200401,200
Time,1200402,208
Time,1200403,211
Time,1200404,204
Time,1200405,194
Time,1200407,192
Time,1200408,177
Time,1200409,206
Time,1200410,196
Time,1300306,95
Time,1300307,90
Time,1300308,102
Time,1300309,94
Time,1300310,98
Time,1300311,95
Time,1300351,95
Time,1300373,92
Time,1300374,93
Time,1300375,97
Time,1300376,98
Time,1300377,86
Time,1300378,91
Time,1300379,94
Time,1300380,107
Time,1300381,98
Time,1300382,93
Time,1300383,94
Time,1400104,706
Time,1400105,419
Time,1400106,411
Time,1400107,419
Time,1400108,445
Time,1400109,451
Time,1400110,447
Time,1400111,461
Time,1400112,446
Time,1400113,450
Time,1400114,455
Time,1400115,455
Time,1400116,456
Time,1400117,431
Time,1400118,416
Time,1400119,405
Time,1400120,437
Time,1400121,407
Time,1400122,446
Time,1400123,440
Time,1400124,427
Time,1400125,410
Time,1400126,453
Time,1400127,407
Time,1400128,416
Time,1400129,375
Time,1400130,457
Time,1400131,426
Time,1400132,431
Time,1400133,387
Time,1400134,455
Time,1400135,412
Time,1400136,399
Time,1400137,427
Time,1400138,434
Time,1400139,433
Time,1400140,424
Time,1400141,428
Time,1400142,407
Time,1400143,459
Time,1400144,430
Time,1400145,438
Time,1400146,709
Time,1400147,423
Time,1500086,195
Time,1500087,190
Time,1700380,368
Time,1700381,393
Time,1700382,391
Time,1700384,394
Time,1700385,393
Time,1700386,391
Time,1700387,397
Time,1700388,398
Time,1700389,396
Time,1700390,337
Time,1700391,377
Time,1700392,398
Time,1700393,350
Time,1700394,344
Time,1700395,361
Time,1700396,369
Time,1700397,369
Time,1700398,340
Time,1700400,364
Time,1700401,369
Time,1700402,391
Time,1700403,367
Time,1700404,363
Time,1700405,382
Time,1700406,391
Time,1700407,377
Time,1700408,387
Time,1700409,358
Time,1700410,381
Time,1700411,381
Time,1700412,376
Time,1700413,392
Time,1700414,371
Time,1700415,393
Time,1700416,390
Time,1700417,394
Time,1700418,379
Time,1700419,395
Time,1700420,384
Time,1700421,374
Time,1700422,359
Time,1700423,631
Time,1700424,369
Time,1700425,432
Time,1700426,369
Time,1700427,330
Time,1700428,349
Time,1700429,377
Time,1700430,391
Time,1700431,374
Time,1700432,359
Time,1700433,388
Time,1800063,278
Time,1800064,253
Time,1800065,276
Time,1800066,256
Time,1800067,285
Time,1800068,278
Time,1800069,280
Time,1800070,270
Time,1800071,285
Time,1800072,284
Time,1900286,683
Time,1900287,385
Time,1900288,383
Time,2001156,309
Time,2001157,290
Time,2001158,284
Time,2001159,278
Time,2001160,297
Time,2001161,318
Time,2001162,297
Time,2001163,308
Time,2001164,291
Time,2001165,299
Time,2001166,292
Time,2001167,297
Time,2100022,371
Time,2100023,383
Time,2100024,366
Time,2100025,374
Time,2100026,377
Time,2100027,383
Time,2100028,366
Time,2100029,371
Time,2100030,378
Time,2100031,381
Time,2100042,343
Time,2100043,351
Time,2100044,352
Time,2100045,335
Time,2100046,336
Time,2100047,323
Time,2100048,364
Time,2100049,349
Time,2100050,352
Time,2100051,380
Time,2100052,376
Time,2100053,370
Time,2100054,375
Time,2100055,372
Time,2100056,374
Time,2100057,334
Time,2100058,397
Time,2100059,343
Time,2100060,346
Time,2100061,353
Time,2100062,339
Time,2200062,178
Time,2200063,207
Time,2200064,185
Time,2200065,186
Time,2200066,188
Time,2200067,189
Time,2200068,203
Time,2200069,193
Time,2200070,202
Time,2200071,198
Time,2200072,192
Time,2200073,183
Time,2200074,190
Time,2300148,273
Time,2300149,259
Time,2300158,255
Time,2300161,429
Time,2300163,270
Time,2300165,269
Time,2300166,280
Time,2300168,267
Time,2300170,253
Time,2400071,130
Time,2400072,134
Time,2400075,127
Time,2400076,143
Time,2400077,144
Time,2400078,150
Time,2400079,123
Time,2400080,127
Time,2400081,128
Time,2400082,127
Time,2400083,126
Time,2500258,395
Time,2500259,403
Time,2500260,400
Time,2500261,397
Time,2500262,350
Time,2500263,397
Time,2500264,414
Time,2500265,411
Time,2500266,404
Time,2500267,359
Time,2500268,442
Time,2500269,377
Time,2500270,666
Time,2500271,402
Time,2500272,373
Time,2600197,375
Time,2600200,413
Time,2600243,376
Time,2600257,419
Time,2700203,73
Time,2700204,70
Time,2700205,81
Time,2700206,81
